…
Use the rate_limit function

rate_limit(get_tokens())[1:3, ]
##                    query limit remaining       reset
## 1             lists/list    15        15 14.975 mins
## 2      lists/memberships    75        75 14.975 mins
## 3 lists/subscribers/show    15        15 14.975 mins

  Get friends

## get list of accounts followed BY a user
fds <- get_friends("kearneymw")
fds
## # A tibble: 962 x 1
##              user_id
##                <chr>
## 1 843078227488915456
## 2 835148691593887744
## 3 795751822585688064
## 4 707260960491376640
## 5         1349865410
## 6 836165272780345344
## 7             428333
## 8          227812077
## 9 859179631664021504
## 10          337950234
## # ... with 952 more rows

next_cursor(fds)
## [1] "0"

  Lookup users

## get users data for my friends
usrs <- lookup_users(fds$user_id)

usrs
## # A tibble: 929 x 36
##               user_id               name     screen_name            location
##                 <chr>              <chr>           <chr>               <chr>
##  1 795751822585688064       Scott Harris       sm_kepler        New York, NY
##  2 707260960491376640   Mohammed Zakaria zakariaCatapult         Chicago, IL
##  3         1349865410     Marnie Ritchie   marnieritchie          Austin, TX
##  4 836165272780345344       Stuart Allen    steadystuart                <NA>
##  5             428333  CNN Breaking News          cnnbrk          Everywhere
##  6          227812077             rubaie         brubaie               kcmo
##  7          337950234            tewsie1         tewsie1         Waterloo IA
##  8           14135384     Seth Ellsworth      pinto4life          Austin, TX
##  9           57371972 amanda luppes ford         aluppes              Austin
## 10          224161598     Georgina Cosma         gcosma1 Nottingham, England
## # ... with 919 more rows, and 32 more variables: description <chr>,
## #   protected <lgl>, followers_count <int>, friends_count <int>,
## #   listed_count <int>, created_at <dttm>, favourites_count <int>,
## #   utc_offset <int>, time_zone <chr>, geo_enabled <lgl>, verified <lgl>,
## #   statuses_count <int>, lang <chr>, contributors_enabled <lgl> ...

  Search tweets

rt <- search_tweets(
    "rstats", n = 300, include_rts = FALSE, exact = TRUE)
## Searching for tweets...
## Finished collecting tweets!

rt
## # A tibble: 300 x 35
##        screen_name            user_id          created_at          status_id
##              <chr>              <chr>              <dttm>              <chr>
##  1            phnk           14460093 2017-06-10 16:16:14 873574535358029824
##  2      jletteboer           92526801 2017-06-10 16:12:47 873573666776391680
##  3 BigDataInsights           89191817 2017-06-10 16:12:42 873573649416163328
##  4 CRANberriesFeed          233585808 2017-06-10 16:02:18 873571030740201473
##  5   DeborahTannon 821976676842242050 2017-06-10 16:00:52 873570670097182721
##  6 AnalyticsVidhya         2311645130 2017-06-10 16:00:18 873570526085697537
##  7 EdwardEgrosFox4           15553592 2017-06-10 15:59:12 873570249186136065
##  8       Rbloggers          144592995 2017-06-10 15:57:17 873569768019767296
##  9     geoappsmith         3306901413 2017-06-10 15:56:53 873569666547032064
## 10      juliasilge           13074042 2017-06-10 15:56:15 873569506215346176
## # ... with 290 more rows, and 31 more variables: text <chr>,
## #   retweet_count <int>, favorite_count <int>, is_quote_status <lgl>,
## #   quote_status_id <chr>, is_retweet <lgl>, retweet_status_id <chr> ...
…
  Users data

With tweets data you also get data about the users via users_data()

## extract users data from rt (tweets data)
users_data(rt)
## # A tibble: 300 x 36
##               user_id                 name     screen_name
##                 <chr>                <chr>           <chr>
##  1           14460093                  Fr.            phnk
##  2           92526801       John Letteboer      jletteboer
##  3           89191817          Marty Wells BigDataInsights
##  4          233585808 CRAN Package Updates CRANberriesFeed
##  5 821976676842242050       Deborah Tannon   DeborahTannon
##  6         2311645130     Analytics Vidhya AnalyticsVidhya
##  7           15553592         Edward Egros EdwardEgrosFox4
##  8          144592995           R-bloggers       Rbloggers
##  9         3306901413         Geo.Appsmith     geoappsmith
## 10           13074042          Julia Silge      juliasilge
## # ... with 290 more rows, and 33 more variables: location <chr> ...
…
